Project 1: Wrangling, Exploration, Visualization
…
Based on the observation of anti_join, we can figure out that there are 8 countries in world_happiness dataframe but not in world population dataframe which are unique for world_happiness.

anti_join(population_tidy, world_happiness, by = c(country = "Country.name"))

## # A tibble: 87 x 9
##    iso_code country area  density_sq_km growth_rate world_percentage  rank
##    <fct>    <fct>   <fct> <fct>         <fct>       <fct>            <int>
##  1 COD      Dr Con 2,34 39/sq_km      3.14%       1.17%               16
##  2 SDN      Sudan   1,88 24/sq_km      2.42%       0.57%               33
##  3 AGO      Angola  1,24 27/sq_km      3.25%       0.43%               43
##  4 PRK      North  120, 215/sq_km     0.42%       0.33%               54
##  5 TWN      Taiwan  36,1 659/sq_km     0.16%       0.30%               57
##  6 SYR      Syria   185, 99/sq_km      4.43%       0.23%               66
##  7 SOM      Somalia 637, 26/sq_km      2.93%       0.21%               73
##  8 SSD      South  619, 18/sq_km      1.68%       0.14%               83
##  9 CUB      Cuba    109, 103/sq_km     -0.08%      0.14%               84
## 10 PNG      Papua  462, 20/sq_km      1.92%       0.12%               97
## #  with 77 more rows, and 2 more variables: population_2021 <fct>,
## #   population_2020 <fct>
…
Among all countries having ladder score over 7, we can find out that Western Europe has largest amount of them.

Summarize(1)

numeric_population %>% group_by(Country.name) %>% summarize(population_increasing = population_2021 - 
    population_2020, n()) %>% arrange(desc(population_increasing))

## # A tibble: 141 x 3
##    Country.name  population_increasing `n()`
##    <fct>                         <dbl> <int>
##  1 India                      17896582     1
##  2 Nigeria                     7027407     1
##  3 China                       6512082     1
##  4 Pakistan                    5742951     1
##  5 Ethiopia                    3887185     1
##  6 Indonesia                   3790660     1
##  7 Egypt                       2567658     1
##  8 United States               2562405     1
##  9 Tanzania                    2356004     1
## 10 Bangladesh                  2150765     1
## #  with 131 more rows
…
